{
    "editor": [
        {
            "icon": "",
            "key": "settings",
            "header": "Settings",
            "disabled": false,
            "fields": [
                {
                    "key": "title",
                    "header": "Title",
                    "type": "text"
                },
                {
                    "key": "titleFont",
                    "header": "Google Font Name",
                    "type": "text"
                },
                {
                    "key": "titleColor",
                    "header": "Title Color",
                    "type": "color"
                },
                {
                    "key": "description",
                    "header": "description",
                    "type": "text"
                },
                {
                    "key": "desColor",
                    "header": "Description Color",
                    "type": "color"
                },
                {
                    "key": "labelColor",
                    "header": "Label Color",
                    "type": "color"
                },
                {
                    "key": "backgroundImage",
                    "header": "Background Image",
                    "type": "image"
                },
                {
                    "key": "giphy",
                    "header": "Ball Giphy",
                    "type": "image"
                },
                {
                    "key": "items",
                    "header": "Items",
                    "type": "array",
                    "fields": [
                        {
                            "key": "item1",
                            "header": "Item 1",
                            "type": "array",
                            "fields": [
                                {
                                    "key": "image",
                                    "header": "Item 1 Image",
                                    "type": "image"
                                },
                                {
                                    "key": "label",
                                    "header": "Item 1 Label",
                                    "type": "text"
                                },
                                {
                                    "key": "probability",
                                    "header": "Probabilty of item",
                                    "type": "range",
                                    "options": {
                                        "minValue": 0,
                                        "maxValue": 1,
                                        "stepSize": "0.1"
                                    }
                                }
                            ]
                        },
                        {
                            "key": "item2",
                            "header": "Item 2",
                            "type": "array",
                            "fields": [
                                {
                                    "key": "image",
                                    "header": "Item 2 Image",
                                    "type": "image"
                                },
                                {
                                    "key": "label",
                                    "header": "Item 2 Label",
                                    "type": "text"
                                },
                                {
                                    "key": "probability",
                                    "header": "Probabilty of item",
                                    "type": "range",
                                    "options": {
                                        "minValue": 0,
                                        "maxValue": 1,
                                        "stepSize": "0.1"
                                    }
                                }
                            ]
                        },
                        {
                            "key": "item3",
                            "header": "Item 3",
                            "type": "array",
                            "fields": [
                                {
                                    "key": "image",
                                    "header": "Item 3 Image",
                                    "type": "image"
                                },
                                {
                                    "key": "label",
                                    "header": "Item 3 Label",
                                    "type": "text"
                                },
                                {
                                    "key": "probability",
                                    "header": "Probabilty of item",
                                    "type": "range",
                                    "options": {
                                        "minValue": 0,
                                        "maxValue": 1,
                                        "stepSize": "0.1"
                                    }
                                }
                            ]
                        }
                    ]
                }
            ]
        }
    ],
    "config": {
        "settings": {
            "title": "Next Indian Unicorn",
            "titleFont": "Poppins",
            "titleColor": "#ffffff",
            "description": "Scratch the crystal ball",
            "desColor": "#bfbfc0",
            "backgroundImage": "https://frontend.apps.playcent.com/90f0d985260e43e79e2ac128de44be47/assets/shutterstock_147776027.jpg",
            "giphy": "https://frontend.apps.playcent.com/90f0d985260e43e79e2ac128de44be47/assets/76zg.txt",
            "labelColor": "#ffffff",
            "items": {
                "item1": {
                    "image": "https://frontend.apps.playcent.com/90f0d985260e43e79e2ac128de44be47/assets/cuaVqp5x.jpg",
                    "label": "Practo",
                    "probability": 0.6
                },
                "item2": {
                    "image": "https://frontend.apps.playcent.com/90f0d985260e43e79e2ac128de44be47/assets/sharechat-1.jpg",
                    "label": "ShareChat",
                    "probability": "0.3"
                },
                "item3": {
                    "image": "https://frontend.apps.playcent.com/90f0d985260e43e79e2ac128de44be47/assets/pT8dY4C-_400x400.jpg",
                    "label": "Bookmyshow",
                    "probability": 0.1
                }
            }
        }
    }
}